<?xml version="1.0" encoding="UTF-8" standalone="no"?>
<!DOCTYPE svg PUBLIC "-//W3C//DTD SVG 1.1//EN" "http://www.w3.org/Graphics/SVG/1.1/DTD/svg11.dtd">
<svg width="100%" height="100%" viewBox="0 0 480 591" version="1.1" xmlns="http://www.w3.org/2000/svg" xmlns:xlink="http://www.w3.org/1999/xlink" xml:space="preserve" xmlns:serif="http://www.serif.com/" style="fill-rule:evenodd;clip-rule:evenodd;stroke-linejoin:round;stroke-miterlimit:2;">
    <g id="Calque-1" serif:id="Calque 1" transform="matrix(4.16667,0,0,4.16667,-55.5,0)">
        <g transform="matrix(0.595197,0,0,0.595197,95.3636,23.5138)">
            <path d="M0,-38.785L0,113.8C0,134.283 -15.93,151.103 -36.047,152.554L24.387,152.554C12.336,151.787 3.384,146.634 -0.527,136.285C1.225,133.31 2.641,130.119 3.668,126.754L6.408,126.754C7.119,138.857 16.09,145.121 28.049,145.121C36.449,145.121 48.123,141.418 48.123,131.168C48.123,122.625 40.149,119.779 32.035,117.785L20.502,115.222C14.516,113.617 9.283,111.783 5.6,108.691L5.6,82.22C11.053,77.089 19.656,74.931 27.621,74.931C42.285,74.931 53.961,82.621 54.529,98.566L45.56,98.566C45.133,87.459 36.59,82.478 26.34,82.478C18.367,82.478 8.971,85.609 8.971,95.148C8.971,103.121 18.082,105.968 24.205,107.535L36.164,110.24C43.66,111.384 51.381,114.894 54.99,121.707L54.99,-38.785L0,-38.785Z" style="fill:rgb(0,42,83);fill-rule:nonzero;"/>
        </g>
        <g transform="matrix(-0.595197,0,0,0.595197,72.231,109.451)">
            <path d="M-0.001,-61.166C16.863,-61.166 30.583,-47.447 30.583,-30.584C30.583,-13.722 16.863,0 -0.001,0C-16.862,0 -30.584,-13.722 -30.584,-30.584C-30.584,-47.447 -16.862,-61.166 -0.001,-61.166" style="fill:rgb(0,42,83);fill-rule:nonzero;"/>
        </g>
        <g transform="matrix(-0.595197,0,0,0.595197,141.093,-121.118)">
            <rect x="201.716" y="348.204" width="11.465" height="47.348" style="fill:rgb(0,42,83);"/>
        </g>
        <g transform="matrix(0.595197,0,0,0.595197,113.685,106.681)">
            <path d="M0,12.824L24.209,12.824L24.209,0C19.928,8.307 9.774,12.15 0,12.824" style="fill:rgb(0,42,83);fill-rule:nonzero;"/>
        </g>
        <g transform="matrix(-0.595197,0,0,0.595197,14.2086,17.747)">
            <path d="M-56.381,-29.096L0,-29.096L0,-19.435C-10.172,-11.304 -21.094,-4.719 -32.029,0C-41.698,-6.09 -50.115,-16.252 -56.381,-29.096" style="fill:rgb(0,42,83);fill-rule:nonzero;"/>
        </g>
        <g transform="matrix(0.595197,0,0,0.595197,34.5012,22.3711)">
            <path d="M0,19.724C11.858,15.407 22.211,9.223 30.483,2.01C20.182,1.403 9.149,-1.395 -1.877,-6.064C-8.529,-2.043 -15.65,0.081 -22.959,0.081C-23.201,0.081 -23.437,0.078 -23.679,0.075C-27.223,0.008 -30.701,-0.574 -34.095,-1.602L-34.095,25.778C-33.786,25.781 -33.481,25.788 -33.173,25.788C-22.373,25.788 -10.902,23.692 0,19.724" style="fill:rgb(0,42,83);fill-rule:nonzero;"/>
        </g>
        <g transform="matrix(0.595197,0,0,0.595197,20.8362,7.30935)">
            <path d="M0,23.888C6.759,23.888 13.272,21.974 19.332,18.482C8.928,13.889 -1.431,7.634 -11.135,0L-11.135,22.139C-7.734,23.215 -4.244,23.814 -0.691,23.88C-0.459,23.885 -0.232,23.888 0,23.888" style="fill:rgb(0,42,83);fill-rule:nonzero;"/>
        </g>
        <g transform="matrix(0.595197,0,0,0.595197,65.2579,22.7187)">
            <path d="M0,-37.449L-27.637,-37.449C-29.515,-33.516 -31.604,-29.787 -33.906,-26.306C-39.229,-18.261 -45.363,-11.982 -52.001,-7.623C-40.912,-3.039 -29.853,-0.387 -19.585,0C-7.421,-11.175 -0.194,-24.621 0,-37.449" style="fill:rgb(0,42,83);fill-rule:nonzero;"/>
        </g>
        <g transform="matrix(0.595197,0,0,0.595197,81.3846,114.314)">
            <path d="M0,-191.339C-0.394,-181.529 -3.484,-172.975 -9.23,-166.285C-17.068,-157.159 -29.118,-152.335 -44.079,-152.335C-44.767,-152.335 -45.457,-152.348 -46.15,-152.368C-54.742,-144.585 -65.668,-137.923 -78.259,-133.341C-89.322,-129.315 -100.971,-127.185 -111.941,-127.185C-112.25,-127.185 -112.556,-127.193 -112.863,-127.196L-112.863,-55.637L-101.398,-55.637L-101.398,-73.48L-101.397,-73.48L-101.398,-73.51C-101.398,-94.943 -83.963,-112.378 -62.532,-112.378C-44.103,-112.378 -28.643,-99.477 -24.673,-82.235C-27.418,-81.65 -30.073,-80.814 -32.607,-79.744C-35.494,-93.627 -47.808,-104.094 -62.532,-104.094C-79.129,-104.094 -92.67,-90.803 -93.097,-74.309L-93.108,-74.309L-93.108,-73.807C-93.109,-73.707 -93.115,-73.61 -93.115,-73.51C-93.115,-73.41 -93.113,-73.314 -93.112,-73.213L-93.112,-55.635L-56.509,-55.631C-57.598,-52.986 -58.438,-50.217 -59.004,-47.348L-93.112,-47.348L-93.112,0L-18.195,0C-38.314,-1.451 -54.244,-18.273 -54.244,-38.754C-54.244,-60.184 -36.81,-77.619 -15.379,-77.619C-2.975,-77.619 8.084,-71.771 15.205,-62.693L15.205,-191.339L0,-191.339Z" style="fill:rgb(0,42,83);fill-rule:nonzero;"/>
        </g>
        <g transform="matrix(0.595197,0,0,0.595197,75.2141,8.42172)">
            <path d="M0,10.648C5.506,4.238 8.479,-3.981 8.868,-13.428L-15.233,-13.428C-15.439,-0.591 -22.42,12.812 -34.209,24.068C-34.043,24.068 -33.877,24.076 -33.713,24.076C-19.202,24.076 -7.545,19.432 0,10.648" style="fill:rgb(0,42,83);fill-rule:nonzero;"/>
        </g>
        <g transform="matrix(0.595197,0,0,0.595197,53.0791,7.73111)">
            <path d="M0,15.025C-1.31,15.025 -2.624,14.788 -3.91,14.32C-8.707,12.574 -11.497,8.1 -10.132,4.347C-9.17,1.706 -6.318,0 -2.867,0C-1.56,0 -0.242,0.236 1.045,0.705C3.319,1.533 5.223,2.994 6.401,4.816C7.639,6.727 7.943,8.808 7.265,10.677C6.303,13.318 3.45,15.025 0,15.025" style="fill:white;fill-rule:nonzero;"/>
        </g>
        <g transform="matrix(0.595197,0,0,0.595197,29.9465,4.91085)">
            <path d="M0,9.692C-1.279,9.692 -2.395,9.205 -3.137,8.318C-4.697,6.459 -4.109,3.388 -1.828,1.474C-0.695,0.523 0.664,0 2,0C3.279,0 4.394,0.488 5.139,1.375C5.926,2.312 6.199,3.565 5.908,4.901C5.637,6.142 4.897,7.32 3.83,8.217C2.695,9.169 1.336,9.692 0,9.692" style="fill:white;fill-rule:nonzero;"/>
        </g>
        <g transform="matrix(0.595197,0,0,0.595197,40.1975,28.1766)">
            <path d="M0,17.682C-2.439,17.682 -4.877,16.655 -6.686,14.865C-8.42,13.149 -9.44,10.913 -9.561,8.573C-9.684,6.196 -8.865,3.994 -7.263,2.371C-5.749,0.844 -3.686,0 -1.449,0C0.99,0 3.427,1.028 5.235,2.817C8.84,6.384 9.099,11.989 5.813,15.309C4.3,16.839 2.234,17.682 0,17.682" style="fill:white;fill-rule:nonzero;"/>
        </g>
        <g transform="matrix(0.595197,0,0,0.595197,30.4802,24.3479)">
            <path d="M0,12.638C-3.263,12.638 -6.011,10.48 -6.534,7.505C-6.83,5.829 -6.395,4.135 -5.309,2.732C-4.243,1.358 -2.677,0.428 -0.896,0.115C-0.47,0.037 -0.033,0 0.396,0C3.656,0 6.403,2.158 6.93,5.132C7.531,8.553 5.004,11.867 1.293,12.524C0.863,12.599 0.43,12.638 0,12.638" style="fill:white;fill-rule:nonzero;"/>
        </g>
        <g transform="matrix(0.203546,-0.55931,-0.55931,-0.203546,55.3842,8.43802)">
            <path d="M-7.758,-5.432C-11.206,-5.431 -14.001,-1.737 -14.003,2.824C-14.001,7.385 -11.206,11.079 -7.758,11.081C-4.309,11.079 -1.514,7.382 -1.513,2.823C-1.514,-1.738 -4.31,-5.433 -7.758,-5.432" style="fill:rgb(36,187,175);fill-rule:nonzero;"/>
        </g>
        <g transform="matrix(0.595197,0,0,0.595197,52.1857,15.7457)">
            <path d="M0,-7.04C-1.507,-7.04 -2.871,-6.21 -3.369,-4.844C-4.024,-3.043 -2.927,-0.991 -0.919,-0.259C-0.436,-0.083 0.056,0 0.534,0C2.042,0 3.406,-0.83 3.905,-2.197C4.56,-3.997 3.463,-6.05 1.454,-6.78C0.97,-6.957 0.479,-7.04 0,-7.04" style="fill:rgb(117,205,217);fill-rule:nonzero;"/>
        </g>
        <g transform="matrix(0.455928,-0.382608,-0.382608,-0.455928,32.5355,8.14582)">
            <path d="M-2.186,-0.797C-4.618,-0.796 -6.589,0.726 -6.59,2.605C-6.589,4.484 -4.618,6.006 -2.186,6.006C0.244,6.006 2.214,4.483 2.214,2.605C2.214,0.725 0.243,-0.795 -2.186,-0.797" style="fill:rgb(244,152,42);fill-rule:nonzero;"/>
        </g>
        <g transform="matrix(0.595197,0,0,0.595197,30.9381,9.71474)">
            <path d="M0,-4.217C-0.522,-4.217 -1.068,-4.028 -1.523,-3.647C-2.473,-2.851 -2.665,-1.517 -1.951,-0.668C-1.579,-0.224 -1.035,0 -0.465,0C0.059,0 0.604,-0.189 1.059,-0.57C2.007,-1.367 2.199,-2.701 1.486,-3.55C1.114,-3.993 0.57,-4.217 0,-4.217" style="fill:rgb(255,200,49);fill-rule:nonzero;"/>
        </g>
        <g transform="matrix(0.418629,-0.423094,-0.423094,-0.418629,44.6438,33.3865)">
            <path d="M-5.826,-2.432C-9.955,-2.435 -13.3,1.237 -13.301,5.765C-13.301,10.29 -9.955,13.962 -5.826,13.959C-1.698,13.961 1.647,10.29 1.649,5.763C1.647,1.238 -1.698,-2.432 -5.826,-2.432" style="fill:rgb(242,102,60);fill-rule:nonzero;"/>
        </g>
        <g transform="matrix(0.586132,-0.103481,-0.103481,-0.586132,31.6781,31.0728)">
            <path d="M-0.922,-0.081C-4.148,-0.081 -6.758,2.292 -6.757,5.221C-6.758,8.148 -4.144,10.521 -0.922,10.52C2.303,10.52 4.913,8.145 4.913,5.218C4.914,2.292 2.3,-0.081 -0.922,-0.081" style="fill:rgb(146,200,61);fill-rule:nonzero;"/>
        </g>
        <g transform="matrix(0.595197,0,0,0.595197,31.3405,30.4668)">
            <path d="M0,-4.075C-0.141,-4.075 -0.284,-4.062 -0.428,-4.037C-1.645,-3.823 -2.473,-2.754 -2.278,-1.649C-2.104,-0.676 -1.197,0 -0.15,0C-0.01,0 0.133,-0.012 0.277,-0.037C1.492,-0.252 2.32,-1.321 2.125,-2.426C1.953,-3.398 1.045,-4.075 0,-4.075" style="fill:rgb(207,221,39);fill-rule:nonzero;"/>
        </g>
        <g transform="matrix(0.595197,0,0,0.595197,40.4823,32.8678)">
            <path d="M0,-5.155C-0.139,-5.155 -0.277,-5.142 -0.417,-5.118C-1.766,-4.881 -2.656,-3.551 -2.408,-2.148C-2.187,-0.888 -1.125,0 0.062,0C0.199,0 0.339,-0.01 0.479,-0.036C1.825,-0.273 2.717,-1.603 2.471,-3.007C2.249,-4.263 1.187,-5.155 0,-5.155" style="fill:rgb(246,138,90);fill-rule:nonzero;"/>
        </g>
        <g transform="matrix(0.595197,0,0,0.595197,14.3517,129.089)">
            <path d="M0,-12.232L6.8,-12.232L6.8,-10.304L2.453,-10.304L2.453,-7.291L6.59,-7.291L6.59,-5.362L2.453,-5.362L2.453,0L0,0L0,-12.232Z" style="fill:rgb(0,42,83);fill-rule:nonzero;"/>
        </g>
        <g transform="matrix(0.595197,0,0,0.595197,21.6528,129.089)">
            <path d="M0,-12.232L2.77,-12.232L7.571,0L4.855,0L3.804,-2.802L-1.157,-2.802L-2.226,0L-4.768,0L0,-12.232ZM1.35,-9.779L1.314,-9.779L-0.456,-4.731L3.12,-4.731L1.35,-9.779Z" style="fill:rgb(0,42,83);fill-rule:nonzero;"/>
        </g>
        <g transform="matrix(0.595197,0,0,0.595197,32.3966,121.912)">
            <path d="M0,11.886C-0.895,12.097 -1.858,12.271 -2.787,12.271C-6.748,12.271 -9.5,10.291 -9.5,6.155C-9.5,1.966 -6.941,-0.385 -2.787,-0.385C-1.981,-0.385 -0.911,-0.225 -0.018,0.125L-0.72,2.194C-1.648,1.667 -1.963,1.544 -2.839,1.544C-5.363,1.544 -6.941,3.473 -6.941,5.979C-6.941,8.468 -5.398,10.343 -2.787,10.343C-1.823,10.343 -1.209,10.133 -0.631,9.835L0,11.886Z" style="fill:rgb(0,42,83);fill-rule:nonzero;"/>
        </g>
        <g transform="matrix(0.595197,0,0,0.595197,33.4178,129.215)">
            <path d="M0,-12.442L2.453,-12.442L2.453,-5.379C2.453,-3.295 3.12,-1.926 4.995,-1.926C6.87,-1.926 7.537,-3.295 7.537,-5.379L7.537,-12.442L9.99,-12.442L9.99,-4.627C9.99,-1.347 8.132,0 4.995,0C1.857,0 0,-1.347 0,-4.627L0,-12.442Z" style="fill:rgb(0,42,83);fill-rule:nonzero;"/>
        </g>
        <g transform="matrix(0.595197,0,0,0.595197,41.0001,129.089)">
            <path d="M0,-12.232L2.454,-12.232L2.454,-1.926L7.204,-1.926L7.204,0L0,0L0,-12.232Z" style="fill:rgb(0,42,83);fill-rule:nonzero;"/>
        </g>
        <g transform="matrix(0.595197,0,0,0.595197,47.5404,127.943)">
            <path d="M0,-8.378L-3.505,-8.378L-3.505,-10.306L5.959,-10.306L5.959,-8.378L2.454,-8.378L2.454,1.928L0,1.928L0,-8.378Z" style="fill:rgb(0,42,83);fill-rule:nonzero;"/>
        </g>
        <g transform="matrix(0.595197,0,0,0.595197,52.0148,127.097)">
            <path d="M0,-8.883L7.221,-8.883L7.221,-6.955L2.454,-6.955L2.454,-3.942L6.817,-3.942L6.817,-2.013L2.454,-2.013L2.454,1.423L7.256,1.423L7.256,3.349L0,3.349L0,-8.883ZM3.47,-12.232L5.872,-12.232L3.47,-9.672L2.016,-9.672L3.47,-12.232Z" style="fill:rgb(0,42,83);fill-rule:nonzero;"/>
        </g>
        <g transform="matrix(0.595197,0,0,0.595197,60.7137,129.089)">
            <path d="M0,-12.232L3.347,-12.232C7.098,-12.232 10.41,-10.97 10.41,-6.115C10.41,-1.26 7.098,0 3.347,0L0,0L0,-12.232ZM2.452,-1.926L3.819,-1.926C5.87,-1.926 7.852,-3.451 7.852,-6.115C7.852,-8.78 5.87,-10.304 3.819,-10.304L2.452,-10.304L2.452,-1.926Z" style="fill:rgb(0,42,83);fill-rule:nonzero;"/>
        </g>
        <g transform="matrix(0.595197,0,0,0.595197,68.2443,129.089)">
            <path d="M0,-12.232L7.221,-12.232L7.221,-10.304L2.453,-10.304L2.453,-7.291L6.816,-7.291L6.816,-5.362L2.453,-5.362L2.453,-1.926L7.255,-1.926L7.255,0L0,0L0,-12.232Z" style="fill:rgb(0,42,83);fill-rule:nonzero;"/>
        </g>
        <g transform="matrix(0.595197,0,0,0.595197,77.6425,127.755)">
            <path d="M0,-7.744C-0.771,-8.078 -1.105,-8.271 -1.963,-8.271C-2.804,-8.271 -3.892,-7.902 -3.892,-6.57C-3.892,-4.449 1.473,-5.345 1.473,-1.242C1.473,1.44 -0.648,2.455 -3.119,2.455C-4.451,2.455 -5.048,2.28 -6.258,1.983L-5.504,-0.226C-4.662,0.231 -4.226,0.527 -3.261,0.527C-2.33,0.527 -1.086,0.055 -1.086,-1.051C-1.086,-3.382 -6.449,-2.417 -6.449,-6.467C-6.449,-9.2 -4.328,-10.199 -2.173,-10.199C-1.121,-10.199 -0.142,-10.057 0.754,-9.762L0,-7.744Z" style="fill:rgb(0,42,83);fill-rule:nonzero;"/>
        </g>
        <g transform="matrix(0.595197,0,0,0.595197,86.3414,127.755)">
            <path d="M0,-7.744C-0.771,-8.078 -1.106,-8.271 -1.963,-8.271C-2.806,-8.271 -3.892,-7.902 -3.892,-6.57C-3.892,-4.449 1.473,-5.345 1.473,-1.242C1.473,1.44 -0.649,2.455 -3.121,2.455C-4.451,2.455 -5.047,2.28 -6.258,1.983L-5.504,-0.226C-4.662,0.231 -4.226,0.527 -3.26,0.527C-2.332,0.527 -1.088,0.055 -1.088,-1.051C-1.088,-3.382 -6.449,-2.417 -6.449,-6.467C-6.449,-9.2 -4.33,-10.199 -2.174,-10.199C-1.123,-10.199 -0.142,-10.057 0.752,-9.762L0,-7.744Z" style="fill:rgb(0,42,83);fill-rule:nonzero;"/>
        </g>
        <g transform="matrix(0.595197,0,0,0.595197,93.8407,121.912)">
            <path d="M0,11.886C-0.896,12.097 -1.858,12.271 -2.787,12.271C-6.748,12.271 -9.5,10.291 -9.5,6.155C-9.5,1.966 -6.94,-0.385 -2.787,-0.385C-1.981,-0.385 -0.912,-0.225 -0.019,0.125L-0.719,2.194C-1.649,1.667 -1.963,1.544 -2.84,1.544C-5.363,1.544 -6.94,3.473 -6.94,5.979C-6.94,8.468 -5.399,10.343 -2.787,10.343C-1.822,10.343 -1.209,10.133 -0.631,9.835L0,11.886Z" style="fill:rgb(0,42,83);fill-rule:nonzero;"/>
        </g>
        <g transform="matrix(0.595197,0,0,0.595197,97.8141,129.089)">
            <path d="M0,-12.232L7.221,-12.232L7.221,-10.304L2.452,-10.304L2.452,-7.291L6.816,-7.291L6.816,-5.362L2.452,-5.362L2.452,-1.926L7.256,-1.926L7.256,0L0,0L0,-12.232Z" style="fill:rgb(0,42,83);fill-rule:nonzero;"/>
        </g>
        <g transform="matrix(0.595197,0,0,0.595197,103.539,129.089)">
            <path d="M0,-12.232L3.016,-12.232L7.678,-3.085L7.713,-3.085L7.713,-12.232L10.063,-12.232L10.063,0L7.063,0L2.385,-9.148L2.35,-9.148L2.35,0L0,0L0,-12.232Z" style="fill:rgb(0,42,83);fill-rule:nonzero;"/>
        </g>
        <g transform="matrix(0.595197,0,0,0.595197,116.442,121.912)">
            <path d="M0,11.886C-0.894,12.097 -1.857,12.271 -2.787,12.271C-6.748,12.271 -9.5,10.291 -9.5,6.155C-9.5,1.966 -6.941,-0.385 -2.787,-0.385C-1.981,-0.385 -0.912,-0.225 -0.019,0.125L-0.72,2.194C-1.649,1.667 -1.963,1.544 -2.84,1.544C-5.363,1.544 -6.941,3.473 -6.941,5.979C-6.941,8.468 -5.399,10.343 -2.787,10.343C-1.824,10.343 -1.209,10.133 -0.631,9.835L0,11.886Z" style="fill:rgb(0,42,83);fill-rule:nonzero;"/>
        </g>
        <g transform="matrix(0.595197,0,0,0.595197,117.515,129.089)">
            <path d="M0,-12.232L7.221,-12.232L7.221,-10.304L2.453,-10.304L2.453,-7.291L6.817,-7.291L6.817,-5.362L2.453,-5.362L2.453,-1.926L7.256,-1.926L7.256,0L0,0L0,-12.232Z" style="fill:rgb(0,42,83);fill-rule:nonzero;"/>
        </g>
        <g transform="matrix(0.595197,0,0,0.595197,126.914,127.755)">
            <path d="M0,-7.744C-0.771,-8.078 -1.105,-8.271 -1.963,-8.271C-2.806,-8.271 -3.892,-7.902 -3.892,-6.57C-3.892,-4.449 1.471,-5.345 1.471,-1.242C1.471,1.44 -0.648,2.455 -3.121,2.455C-4.451,2.455 -5.048,2.28 -6.259,1.983L-5.504,-0.226C-4.662,0.231 -4.226,0.527 -3.261,0.527C-2.33,0.527 -1.086,0.055 -1.086,-1.051C-1.086,-3.382 -6.449,-2.417 -6.449,-6.467C-6.449,-9.2 -4.328,-10.199 -2.175,-10.199C-1.121,-10.199 -0.142,-10.057 0.754,-9.762L0,-7.744Z" style="fill:rgb(0,42,83);fill-rule:nonzero;"/>
        </g>
        <g transform="matrix(0.595197,0,0,0.595197,14.2088,140.777)">
            <path d="M0,-12.955L6.04,-12.955L9.09,-4.343L9.131,-4.343L12.326,-12.955L18.139,-12.955L18.139,0L14.388,0L14.45,-9.948L14.408,-9.948L10.739,0L7.214,0L3.711,-9.948L3.669,-9.948L3.752,0L0,0L0,-12.955Z" style="fill:rgb(128,130,133);fill-rule:nonzero;"/>
        </g>
        <g transform="matrix(0.595197,0,0,0.595197,33.3387,140.909)">
            <path d="M0,-13.399C4.74,-13.399 7.214,-10.856 7.214,-6.698C7.214,-2.58 4.699,0 0,0C-4.7,0 -7.214,-2.58 -7.214,-6.698C-7.214,-10.856 -4.741,-13.399 0,-13.399M0,-2.559C2.329,-2.559 3.257,-4.564 3.257,-6.698C3.257,-8.945 2.329,-10.838 0,-10.838C-2.33,-10.838 -3.257,-8.945 -3.257,-6.698C-3.257,-4.564 -2.33,-2.559 0,-2.559" style="fill:rgb(128,130,133);fill-rule:nonzero;"/>
        </g>
        <g transform="matrix(0.595197,0,0,0.595197,41.7692,140.777)">
            <path d="M0,-12.955L4.885,-12.955L9.75,-4.157L9.791,-4.157L9.729,-12.955L13.233,-12.955L13.233,0L8.472,0L3.442,-8.852L3.401,-8.852L3.525,0L0,0L0,-12.955Z" style="fill:rgb(128,130,133);fill-rule:nonzero;"/>
        </g>
        <g transform="matrix(0.595197,0,0,0.595197,55.5738,139.251)">
            <path d="M0,-7.831L-3.545,-7.831L-3.545,-10.394L7.379,-10.394L7.379,-7.831L3.834,-7.831L3.834,2.563L0,2.563L0,-7.831Z" style="fill:rgb(128,130,133);fill-rule:nonzero;"/>
        </g>
        <g transform="matrix(0.595197,0,0,0.595197,63.6234,140.777)">
            <path d="M0,-12.955L4.576,-12.955C8.967,-12.955 11.028,-11.618 11.028,-8.705C11.028,-6.088 8.905,-4.528 5.318,-4.528L3.834,-4.528L3.834,0L0,0L0,-12.955ZM3.834,-6.978L4.824,-6.978C6.144,-6.978 7.194,-7.405 7.194,-8.762C7.194,-10.078 6.144,-10.505 4.824,-10.505L3.834,-10.505L3.834,-6.978Z" style="fill:rgb(128,130,133);fill-rule:nonzero;"/>
        </g>
        <g transform="matrix(0.595197,0,0,0.595197,74.005,140.777)">
            <path d="M0,-12.955L10.141,-12.955L10.141,-10.505L3.834,-10.505L3.834,-7.833L9.791,-7.833L9.791,-5.382L3.834,-5.382L3.834,-2.449L10.366,-2.449L10.366,0L0,0L0,-12.955Z" style="fill:rgb(128,130,133);fill-rule:nonzero;"/>
        </g>
        <g transform="matrix(0.595197,0,0,0.595197,84.3862,140.777)">
            <path d="M0,-12.955L3.834,-12.955L3.834,-2.561L9.769,-2.561L9.769,0L0,0L0,-12.955Z" style="fill:rgb(128,130,133);fill-rule:nonzero;"/>
        </g>
        <g transform="matrix(0.595197,0,0,0.595197,94.0314,140.777)">
            <path d="M0,-12.955L3.834,-12.955L3.834,-2.561L9.769,-2.561L9.769,0L0,0L0,-12.955Z" style="fill:rgb(128,130,133);fill-rule:nonzero;"/>
        </g>
        <g transform="matrix(0.595197,0,0,0.595197,-105.852,-47.7198)">
            <rect x="352.218" y="303.742" width="3.834" height="12.955" style="fill:rgb(128,130,133);"/>
        </g>
        <g transform="matrix(0.595197,0,0,0.595197,110.535,140.777)">
            <path d="M0,-12.955L10.141,-12.955L10.141,-10.505L3.834,-10.505L3.834,-7.833L9.791,-7.833L9.791,-5.382L3.834,-5.382L3.834,-2.449L10.368,-2.449L10.368,0L0,0L0,-12.955Z" style="fill:rgb(128,130,133);fill-rule:nonzero;"/>
        </g>
        <g transform="matrix(0.595197,0,0,0.595197,120.854,140.777)">
            <path d="M0,-12.955L6.844,-12.955C9.399,-12.955 11.481,-11.916 11.481,-9.688C11.481,-7.962 10.574,-6.811 8.719,-6.421L8.719,-6.386C9.957,-6.088 10.039,-5.104 10.76,-3.526L12.162,0L8.164,0L7.34,-2.338C6.905,-3.581 6.555,-4.714 6.101,-5.104C6.101,-5.104 5.276,-5.122 4.639,-5.122L3.834,-5.122L3.834,0L0,0L0,-12.955ZM3.834,-7.573L4.844,-7.573C6.082,-7.573 7.647,-7.609 7.647,-9.076C7.647,-10.282 6.307,-10.505 4.844,-10.505L3.834,-10.505L3.834,-7.573Z" style="fill:rgb(128,130,133);fill-rule:nonzero;"/>
        </g>
        <g transform="matrix(-0.595197,0,0,0.595197,95.1157,121.809)">
            <rect x="-2.35" y="0" width="2.351" height="12.233" style="fill:rgb(0,42,83);"/>
        </g>
    </g>
</svg>
