<?xml version="1.0" encoding="UTF-8" standalone="no"?>
<!DOCTYPE svg PUBLIC "-//W3C//DTD SVG 1.1//EN" "http://www.w3.org/Graphics/SVG/1.1/DTD/svg11.dtd">
<svg width="100%" height="100%" viewBox="0 0 300 180" version="1.1" xmlns="http://www.w3.org/2000/svg" xmlns:xlink="http://www.w3.org/1999/xlink" xml:space="preserve" xmlns:serif="http://www.serif.com/" style="fill-rule:evenodd;clip-rule:evenodd;stroke-linecap:round;stroke-linejoin:round;stroke-miterlimit:10;">
    <g transform="matrix(1,0,0,1,-15.48,0)">
        <g transform="matrix(20,0,0,20,96.0874,17.3982)">
            <path d="M0.28,-0.287L0.362,-0.287C0.436,-0.287 0.453,-0.257 0.454,-0.184L0.455,-0.15C0.455,-0.04 0.501,0.014 0.604,0.014C0.694,0.014 0.734,-0.046 0.753,-0.125L0.694,-0.144C0.68,-0.099 0.668,-0.085 0.654,-0.085C0.634,-0.085 0.625,-0.095 0.623,-0.138L0.62,-0.177C0.617,-0.255 0.576,-0.311 0.45,-0.322L0.45,-0.329C0.605,-0.347 0.654,-0.412 0.654,-0.491C0.654,-0.574 0.587,-0.658 0.388,-0.658L0.027,-0.658L0.027,-0.571L0.117,-0.571L0.117,-0.087L0.027,-0.087L0.027,0L0.373,0L0.373,-0.087L0.28,-0.087L0.28,-0.287ZM0.28,-0.368L0.28,-0.575L0.37,-0.575C0.456,-0.575 0.479,-0.542 0.479,-0.474C0.479,-0.398 0.445,-0.368 0.367,-0.368L0.28,-0.368Z" style="fill-rule:nonzero;"/>
        </g>
        <g transform="matrix(14,0,0,14,110.647,19.3982)">
            <path d="M0.048,0L0.47,0L0.47,-0.083L0.338,-0.083L0.338,-0.642L0.243,-0.642C0.209,-0.588 0.132,-0.559 0.043,-0.563L0.043,-0.493C0.064,-0.486 0.096,-0.481 0.123,-0.481C0.147,-0.481 0.169,-0.484 0.183,-0.489L0.183,-0.083L0.048,-0.083L0.048,0Z" style="fill-rule:nonzero;"/>
        </g>
    </g>
    <g transform="matrix(1.27933,0,0,1,118.798,52.7035)">
        <g transform="matrix(15.6332,0,0,20,96.0874,17.3982)">
            <path d="M0.28,-0.287L0.362,-0.287C0.436,-0.287 0.453,-0.257 0.454,-0.184L0.455,-0.15C0.455,-0.04 0.501,0.014 0.604,0.014C0.694,0.014 0.734,-0.046 0.753,-0.125L0.694,-0.144C0.68,-0.099 0.668,-0.085 0.654,-0.085C0.634,-0.085 0.625,-0.095 0.623,-0.138L0.62,-0.177C0.617,-0.255 0.576,-0.311 0.45,-0.322L0.45,-0.329C0.605,-0.347 0.654,-0.412 0.654,-0.491C0.654,-0.574 0.587,-0.658 0.388,-0.658L0.027,-0.658L0.027,-0.571L0.117,-0.571L0.117,-0.087L0.027,-0.087L0.027,0L0.373,0L0.373,-0.087L0.28,-0.087L0.28,-0.287ZM0.28,-0.368L0.28,-0.575L0.37,-0.575C0.456,-0.575 0.479,-0.542 0.479,-0.474C0.479,-0.398 0.445,-0.368 0.367,-0.368L0.28,-0.368Z" style="fill-rule:nonzero;"/>
        </g>
        <g transform="matrix(10.9432,0,0,14,107.468,19.3982)">
            <path d="M0.035,-0.084C0.035,-0.023 0.068,0.017 0.117,0.017C0.158,0.017 0.183,-0.013 0.183,-0.047C0.183,-0.067 0.174,-0.082 0.167,-0.088C0.171,-0.089 0.179,-0.09 0.185,-0.09C0.251,-0.09 0.287,0.016 0.4,0.016C0.481,0.016 0.531,-0.043 0.54,-0.211L0.481,-0.216C0.465,-0.148 0.451,-0.124 0.413,-0.124C0.366,-0.124 0.316,-0.161 0.245,-0.161C0.197,-0.161 0.159,-0.146 0.128,-0.123L0.124,-0.127C0.15,-0.19 0.218,-0.217 0.319,-0.259C0.426,-0.302 0.526,-0.348 0.526,-0.464C0.526,-0.569 0.439,-0.65 0.283,-0.65C0.137,-0.65 0.043,-0.563 0.043,-0.473C0.043,-0.418 0.079,-0.378 0.13,-0.378C0.183,-0.378 0.212,-0.414 0.212,-0.456C0.212,-0.491 0.192,-0.518 0.157,-0.53C0.175,-0.561 0.211,-0.579 0.255,-0.579C0.317,-0.579 0.353,-0.54 0.353,-0.473C0.353,-0.387 0.301,-0.351 0.206,-0.291C0.127,-0.241 0.035,-0.179 0.035,-0.084Z" style="fill-rule:nonzero;"/>
        </g>
    </g>
    <g transform="matrix(1.27933,0,0,1,104.572,124.354)">
        <g transform="matrix(15.6332,0,0,20,96.0874,17.3982)">
            <path d="M0.28,-0.287L0.362,-0.287C0.436,-0.287 0.453,-0.257 0.454,-0.184L0.455,-0.15C0.455,-0.04 0.501,0.014 0.604,0.014C0.694,0.014 0.734,-0.046 0.753,-0.125L0.694,-0.144C0.68,-0.099 0.668,-0.085 0.654,-0.085C0.634,-0.085 0.625,-0.095 0.623,-0.138L0.62,-0.177C0.617,-0.255 0.576,-0.311 0.45,-0.322L0.45,-0.329C0.605,-0.347 0.654,-0.412 0.654,-0.491C0.654,-0.574 0.587,-0.658 0.388,-0.658L0.027,-0.658L0.027,-0.571L0.117,-0.571L0.117,-0.087L0.027,-0.087L0.027,0L0.373,0L0.373,-0.087L0.28,-0.087L0.28,-0.287ZM0.28,-0.368L0.28,-0.575L0.37,-0.575C0.456,-0.575 0.479,-0.542 0.479,-0.474C0.479,-0.398 0.445,-0.368 0.367,-0.368L0.28,-0.368Z" style="fill-rule:nonzero;"/>
        </g>
        <g transform="matrix(10.9432,0,0,14,107.468,19.3982)">
            <path d="M0.266,0.016C0.428,0.016 0.527,-0.065 0.527,-0.171C0.527,-0.255 0.463,-0.311 0.326,-0.325L0.326,-0.33C0.459,-0.349 0.516,-0.405 0.516,-0.487C0.516,-0.575 0.432,-0.65 0.274,-0.65C0.131,-0.65 0.037,-0.582 0.037,-0.5C0.037,-0.448 0.072,-0.415 0.123,-0.415C0.176,-0.415 0.202,-0.449 0.202,-0.488C0.202,-0.517 0.184,-0.543 0.157,-0.554C0.174,-0.566 0.207,-0.576 0.242,-0.576C0.311,-0.576 0.346,-0.543 0.346,-0.478C0.346,-0.4 0.311,-0.361 0.2,-0.361L0.173,-0.361L0.173,-0.281L0.202,-0.281C0.322,-0.281 0.357,-0.244 0.357,-0.166C0.357,-0.094 0.314,-0.058 0.247,-0.058C0.199,-0.058 0.159,-0.068 0.146,-0.082C0.17,-0.094 0.189,-0.119 0.189,-0.148C0.189,-0.187 0.162,-0.22 0.109,-0.22C0.057,-0.22 0.022,-0.186 0.022,-0.133C0.022,-0.049 0.115,0.016 0.266,0.016Z" style="fill-rule:nonzero;"/>
        </g>
    </g>
    <g transform="matrix(1,0,0,1,54.7346,0)">
        <g transform="matrix(20,0,0,20,96.0874,17.3982)">
            <path d="M0.373,0.016C0.551,0.016 0.648,-0.093 0.665,-0.263L0.569,-0.263C0.552,-0.153 0.495,-0.078 0.396,-0.078C0.283,-0.078 0.214,-0.155 0.214,-0.335C0.214,-0.523 0.28,-0.592 0.374,-0.592C0.457,-0.592 0.513,-0.531 0.553,-0.41L0.652,-0.41L0.652,-0.672L0.562,-0.672L0.541,-0.596C0.501,-0.645 0.438,-0.674 0.354,-0.674C0.182,-0.674 0.036,-0.53 0.036,-0.325C0.036,-0.122 0.168,0.016 0.373,0.016Z" style="fill-rule:nonzero;"/>
        </g>
        <g transform="matrix(14,0,0,14,109.987,19.3982)">
            <path d="M0.048,0L0.47,0L0.47,-0.083L0.338,-0.083L0.338,-0.642L0.243,-0.642C0.209,-0.588 0.132,-0.559 0.043,-0.563L0.043,-0.493C0.064,-0.486 0.096,-0.481 0.123,-0.481C0.147,-0.481 0.169,-0.484 0.183,-0.489L0.183,-0.083L0.048,-0.083L0.048,0Z" style="fill-rule:nonzero;"/>
        </g>
    </g>
    <g transform="matrix(1.43895,0,0,1,23.0614,53.0468)">
        <g transform="matrix(13.8991,0,0,20,96.0874,17.3982)">
            <path d="M0.373,0.016C0.551,0.016 0.648,-0.093 0.665,-0.263L0.569,-0.263C0.552,-0.153 0.495,-0.078 0.396,-0.078C0.283,-0.078 0.214,-0.155 0.214,-0.335C0.214,-0.523 0.28,-0.592 0.374,-0.592C0.457,-0.592 0.513,-0.531 0.553,-0.41L0.652,-0.41L0.652,-0.672L0.562,-0.672L0.541,-0.596C0.501,-0.645 0.438,-0.674 0.354,-0.674C0.182,-0.674 0.036,-0.53 0.036,-0.325C0.036,-0.122 0.168,0.016 0.373,0.016Z" style="fill-rule:nonzero;"/>
        </g>
        <g transform="matrix(9.72934,0,0,14,105.747,19.3982)">
            <path d="M0.035,-0.084C0.035,-0.023 0.068,0.017 0.117,0.017C0.158,0.017 0.183,-0.013 0.183,-0.047C0.183,-0.067 0.174,-0.082 0.167,-0.088C0.171,-0.089 0.179,-0.09 0.185,-0.09C0.251,-0.09 0.287,0.016 0.4,0.016C0.481,0.016 0.531,-0.043 0.54,-0.211L0.481,-0.216C0.465,-0.148 0.451,-0.124 0.413,-0.124C0.366,-0.124 0.316,-0.161 0.245,-0.161C0.197,-0.161 0.159,-0.146 0.128,-0.123L0.124,-0.127C0.15,-0.19 0.218,-0.217 0.319,-0.259C0.426,-0.302 0.526,-0.348 0.526,-0.464C0.526,-0.569 0.439,-0.65 0.283,-0.65C0.137,-0.65 0.043,-0.563 0.043,-0.473C0.043,-0.418 0.079,-0.378 0.13,-0.378C0.183,-0.378 0.212,-0.414 0.212,-0.456C0.212,-0.491 0.192,-0.518 0.157,-0.53C0.175,-0.561 0.211,-0.579 0.255,-0.579C0.317,-0.579 0.353,-0.54 0.353,-0.473C0.353,-0.387 0.301,-0.351 0.206,-0.291C0.127,-0.241 0.035,-0.179 0.035,-0.084Z" style="fill-rule:nonzero;"/>
        </g>
    </g>
    <g transform="matrix(1,0,0,1,-8.48,0)">
        <g transform="matrix(20,0,0,20,64.2195,20.4997)">
            <path d="M0.293,-0.609C0.293,-0.639 0.274,-0.658 0.246,-0.658C0.208,-0.658 0.185,-0.62 0.185,-0.588C0.185,-0.557 0.206,-0.54 0.23,-0.54C0.269,-0.54 0.293,-0.578 0.293,-0.609ZM0.24,-0.362C0.24,-0.423 0.21,-0.458 0.165,-0.458C0.107,-0.458 0.064,-0.4 0.022,-0.309L0.056,-0.294C0.088,-0.356 0.117,-0.407 0.149,-0.407C0.164,-0.407 0.168,-0.393 0.168,-0.379C0.168,-0.299 0.082,-0.171 0.081,-0.077C0.08,-0.021 0.112,0.009 0.156,0.009C0.203,0.009 0.248,-0.027 0.29,-0.15L0.256,-0.161C0.228,-0.088 0.204,-0.05 0.179,-0.05C0.162,-0.05 0.156,-0.063 0.156,-0.076C0.156,-0.142 0.24,-0.279 0.24,-0.362Z" style="fill-rule:nonzero;"/>
        </g>
        <g transform="matrix(11.66,0,0,11.66,70.5795,27.1597)">
            <path d="M-0.001,0L0.369,0L0.379,-0.052L0.238,-0.052L0.383,-0.635L0.331,-0.635C0.288,-0.582 0.209,-0.554 0.132,-0.555L0.121,-0.513C0.136,-0.508 0.161,-0.505 0.181,-0.505C0.214,-0.505 0.248,-0.51 0.273,-0.521L0.156,-0.052L0.011,-0.052L-0.001,0Z" style="fill-rule:nonzero;"/>
        </g>
    </g>
    <g transform="matrix(1,0,0,1,5.10969,39.0231)">
        <g transform="matrix(20,0,0,20,-1.18896,70.1017)">
            <path d="M0.254,-0.601L0.357,-0.601L0.369,-0.652L0.097,-0.652L0.084,-0.601L0.169,-0.601L0.245,0.004L0.311,0.004L0.69,-0.601L0.76,-0.601L0.772,-0.652L0.547,-0.652L0.534,-0.601L0.622,-0.601L0.315,-0.094L0.312,-0.094L0.254,-0.601Z" style="fill-rule:nonzero;"/>
        </g>
        <g transform="matrix(20,0,0,20,11.391,70.1017)">
            <path d="M0.414,-0.366C0.414,-0.418 0.375,-0.458 0.303,-0.458C0.171,-0.458 0.031,-0.312 0.031,-0.159C0.031,-0.055 0.094,0.009 0.184,0.009C0.277,0.009 0.336,-0.046 0.384,-0.119L0.353,-0.139C0.309,-0.075 0.26,-0.038 0.205,-0.038C0.15,-0.038 0.111,-0.074 0.111,-0.155C0.111,-0.164 0.111,-0.174 0.113,-0.184C0.319,-0.206 0.414,-0.278 0.414,-0.366ZM0.288,-0.418C0.322,-0.418 0.342,-0.396 0.342,-0.364C0.342,-0.302 0.29,-0.244 0.12,-0.221C0.143,-0.314 0.208,-0.418 0.288,-0.418Z" style="fill-rule:nonzero;"/>
        </g>
    </g>
    <g transform="matrix(1,0,0,1,53.3365,96.4641)">
        <g transform="matrix(20,0,0,20,-1.18896,70.1017)">
            <path d="M0.248,0.157L0.28,0.123C0.197,0.049 0.152,-0.048 0.152,-0.177C0.152,-0.372 0.26,-0.594 0.479,-0.685L0.464,-0.724C0.209,-0.637 0.072,-0.412 0.072,-0.186C0.072,-0.033 0.144,0.079 0.248,0.157Z" style="fill-rule:nonzero;"/>
        </g>
        <g transform="matrix(20,0,0,20,6.03104,70.1017)">
            <path d="M0.243,0.016C0.406,0.016 0.533,-0.186 0.533,-0.401C0.533,-0.552 0.464,-0.643 0.348,-0.643C0.185,-0.643 0.057,-0.442 0.057,-0.226C0.057,-0.076 0.126,0.016 0.243,0.016ZM0.347,-0.594C0.412,-0.594 0.448,-0.546 0.448,-0.427C0.447,-0.282 0.377,-0.033 0.244,-0.033C0.179,-0.033 0.142,-0.081 0.143,-0.201C0.144,-0.345 0.214,-0.594 0.347,-0.594Z" style="fill-rule:nonzero;"/>
        </g>
        <g transform="matrix(20,0,0,20,17.071,70.1017)">
            <path d="M0.143,-0.724L0.111,-0.69C0.194,-0.616 0.239,-0.519 0.239,-0.39C0.239,-0.195 0.131,0.027 -0.088,0.118L-0.073,0.157C0.182,0.07 0.319,-0.155 0.319,-0.381C0.319,-0.534 0.247,-0.646 0.143,-0.724Z" style="fill-rule:nonzero;"/>
        </g>
    </g>
    <g transform="matrix(1,0,0,1,24.3279,-47.0494)">
        <g transform="matrix(20,0,0,20,-1.18896,70.1017)">
            <path d="M0.248,0.157L0.28,0.123C0.197,0.049 0.152,-0.048 0.152,-0.177C0.152,-0.372 0.26,-0.594 0.479,-0.685L0.464,-0.724C0.209,-0.637 0.072,-0.412 0.072,-0.186C0.072,-0.033 0.144,0.079 0.248,0.157Z" style="fill-rule:nonzero;"/>
        </g>
        <g transform="matrix(20,0,0,20,6.03104,70.1017)">
            <path d="M-0.001,0L0.369,0L0.379,-0.052L0.238,-0.052L0.383,-0.635L0.331,-0.635C0.288,-0.582 0.209,-0.554 0.132,-0.555L0.121,-0.513C0.136,-0.508 0.161,-0.505 0.181,-0.505C0.214,-0.505 0.248,-0.51 0.273,-0.521L0.156,-0.052L0.011,-0.052L-0.001,0Z" style="fill-rule:nonzero;"/>
        </g>
        <g transform="matrix(20,0,0,20,14.951,70.1017)">
            <path d="M0.143,-0.724L0.111,-0.69C0.194,-0.616 0.239,-0.519 0.239,-0.39C0.239,-0.195 0.131,0.027 -0.088,0.118L-0.073,0.157C0.182,0.07 0.319,-0.155 0.319,-0.381C0.319,-0.534 0.247,-0.646 0.143,-0.724Z" style="fill-rule:nonzero;"/>
        </g>
    </g>
    <g transform="matrix(1,0,0,1,119.559,-47.0494)">
        <g transform="matrix(20,0,0,20,-1.18896,70.1017)">
            <path d="M0.248,0.157L0.28,0.123C0.197,0.049 0.152,-0.048 0.152,-0.177C0.152,-0.372 0.26,-0.594 0.479,-0.685L0.464,-0.724C0.209,-0.637 0.072,-0.412 0.072,-0.186C0.072,-0.033 0.144,0.079 0.248,0.157Z" style="fill-rule:nonzero;"/>
        </g>
        <g transform="matrix(20,0,0,20,6.03104,70.1017)">
            <path d="M0.199,-0.541C0.22,-0.57 0.261,-0.594 0.321,-0.594C0.39,-0.594 0.443,-0.557 0.443,-0.485C0.443,-0.403 0.378,-0.35 0.259,-0.296C0.116,-0.233 0.022,-0.149 0.022,-0.054C0.022,-0.011 0.041,0.015 0.072,0.015C0.1,0.015 0.118,-0.006 0.118,-0.038C0.118,-0.046 0.115,-0.057 0.111,-0.064C0.121,-0.068 0.135,-0.07 0.144,-0.07C0.205,-0.07 0.237,0.015 0.322,0.015C0.398,0.015 0.456,-0.039 0.492,-0.193L0.456,-0.2C0.417,-0.097 0.385,-0.061 0.339,-0.061C0.291,-0.061 0.251,-0.116 0.178,-0.116C0.147,-0.116 0.119,-0.107 0.093,-0.093L0.091,-0.095C0.111,-0.147 0.142,-0.203 0.318,-0.264C0.428,-0.301 0.525,-0.358 0.525,-0.476C0.525,-0.572 0.45,-0.643 0.329,-0.643C0.203,-0.643 0.115,-0.562 0.115,-0.488C0.115,-0.447 0.14,-0.421 0.176,-0.421C0.216,-0.423 0.234,-0.454 0.234,-0.482C0.234,-0.511 0.218,-0.531 0.199,-0.541Z" style="fill-rule:nonzero;"/>
        </g>
        <g transform="matrix(20,0,0,20,16.871,70.1017)">
            <path d="M0.143,-0.724L0.111,-0.69C0.194,-0.616 0.239,-0.519 0.239,-0.39C0.239,-0.195 0.131,0.027 -0.088,0.118L-0.073,0.157C0.182,0.07 0.319,-0.155 0.319,-0.381C0.319,-0.534 0.247,-0.646 0.143,-0.724Z" style="fill-rule:nonzero;"/>
        </g>
    </g>
    <g transform="matrix(1,0,0,1,201.194,-47.0494)">
        <g transform="matrix(20,0,0,20,-1.18896,70.1017)">
            <path d="M0.248,0.157L0.28,0.123C0.197,0.049 0.152,-0.048 0.152,-0.177C0.152,-0.372 0.26,-0.594 0.479,-0.685L0.464,-0.724C0.209,-0.637 0.072,-0.412 0.072,-0.186C0.072,-0.033 0.144,0.079 0.248,0.157Z" style="fill-rule:nonzero;"/>
        </g>
        <g transform="matrix(20,0,0,20,6.03104,70.1017)">
            <path d="M0.097,-0.088C0.12,-0.099 0.14,-0.12 0.14,-0.154C0.14,-0.181 0.12,-0.206 0.087,-0.206C0.05,-0.206 0.021,-0.172 0.021,-0.129C0.021,-0.046 0.113,0.016 0.225,0.016C0.357,0.016 0.452,-0.073 0.452,-0.179C0.452,-0.245 0.407,-0.3 0.315,-0.319L0.315,-0.321C0.434,-0.337 0.508,-0.403 0.508,-0.497C0.508,-0.575 0.445,-0.643 0.322,-0.643C0.22,-0.643 0.121,-0.581 0.121,-0.504C0.121,-0.471 0.142,-0.448 0.175,-0.448C0.209,-0.448 0.231,-0.476 0.231,-0.508C0.231,-0.528 0.222,-0.545 0.207,-0.557C0.225,-0.578 0.265,-0.595 0.313,-0.595C0.383,-0.595 0.422,-0.56 0.422,-0.498C0.422,-0.461 0.411,-0.423 0.381,-0.394C0.35,-0.363 0.306,-0.347 0.235,-0.347L0.214,-0.347L0.202,-0.298L0.22,-0.298C0.326,-0.298 0.366,-0.25 0.366,-0.188C0.366,-0.105 0.311,-0.033 0.217,-0.033C0.15,-0.033 0.109,-0.064 0.097,-0.088Z" style="fill-rule:nonzero;"/>
        </g>
        <g transform="matrix(20,0,0,20,16.271,70.1017)">
            <path d="M0.143,-0.724L0.111,-0.69C0.194,-0.616 0.239,-0.519 0.239,-0.39C0.239,-0.195 0.131,0.027 -0.088,0.118L-0.073,0.157C0.182,0.07 0.319,-0.155 0.319,-0.381C0.319,-0.534 0.247,-0.646 0.143,-0.724Z" style="fill-rule:nonzero;"/>
        </g>
    </g>
    <g transform="matrix(1,0,0,1,230.135,39.107)">
        <g transform="matrix(20,0,0,20,-1.18896,70.1017)">
            <path d="M0.248,0.157L0.28,0.123C0.197,0.049 0.152,-0.048 0.152,-0.177C0.152,-0.372 0.26,-0.594 0.479,-0.685L0.464,-0.724C0.209,-0.637 0.072,-0.412 0.072,-0.186C0.072,-0.033 0.144,0.079 0.248,0.157Z" style="fill-rule:nonzero;"/>
        </g>
        <g transform="matrix(20,0,0,20,5.87104,70.1017)">
            <path d="M0.324,-0.233L0.097,-0.233L0.4,-0.548L0.403,-0.548L0.324,-0.233ZM0.358,-0.051L0.39,-0.18L0.52,-0.18L0.532,-0.233L0.403,-0.233L0.505,-0.638L0.421,-0.638L0.03,-0.234L0.017,-0.18L0.31,-0.18L0.278,-0.051L0.179,-0.051L0.166,0L0.443,0L0.456,-0.051L0.358,-0.051Z" style="fill-rule:nonzero;"/>
        </g>
        <g transform="matrix(20,0,0,20,16.831,70.1017)">
            <path d="M0.143,-0.724L0.111,-0.69C0.194,-0.616 0.239,-0.519 0.239,-0.39C0.239,-0.195 0.131,0.027 -0.088,0.118L-0.073,0.157C0.182,0.07 0.319,-0.155 0.319,-0.381C0.319,-0.534 0.247,-0.646 0.143,-0.724Z" style="fill-rule:nonzero;"/>
        </g>
    </g>
    <g transform="matrix(1,0,0,1,101.486,21.553)">
        <g transform="matrix(20,0,0,20,176.542,70.1017)">
            <path d="M0.254,-0.601L0.357,-0.601L0.369,-0.652L0.097,-0.652L0.084,-0.601L0.169,-0.601L0.245,0.004L0.311,0.004L0.69,-0.601L0.76,-0.601L0.772,-0.652L0.547,-0.652L0.534,-0.601L0.622,-0.601L0.315,-0.094L0.312,-0.094L0.254,-0.601Z" style="fill-rule:nonzero;"/>
        </g>
        <g transform="matrix(20,0,0,20,189.282,70.1017)">
            <path d="M0.353,-0.137C0.353,-0.202 0.304,-0.229 0.243,-0.256C0.18,-0.284 0.152,-0.305 0.152,-0.342C0.152,-0.39 0.19,-0.42 0.246,-0.42C0.281,-0.42 0.315,-0.407 0.326,-0.395C0.312,-0.385 0.301,-0.365 0.301,-0.346C0.301,-0.32 0.319,-0.303 0.345,-0.303C0.377,-0.303 0.395,-0.333 0.395,-0.364C0.395,-0.422 0.326,-0.458 0.246,-0.458C0.164,-0.458 0.079,-0.409 0.079,-0.315C0.079,-0.249 0.135,-0.222 0.185,-0.199C0.254,-0.168 0.28,-0.15 0.28,-0.112C0.28,-0.061 0.241,-0.03 0.183,-0.03C0.144,-0.03 0.106,-0.044 0.089,-0.063C0.102,-0.073 0.114,-0.093 0.114,-0.115C0.114,-0.14 0.097,-0.16 0.071,-0.16C0.037,-0.16 0.017,-0.128 0.017,-0.097C0.017,-0.028 0.108,0.009 0.183,0.009C0.272,0.009 0.353,-0.042 0.353,-0.137Z" style="fill-rule:nonzero;"/>
        </g>
    </g>
    <g transform="matrix(1,0,0,1,-8.48,-66.0518)">
        <path d="M80.995,89.786L121.261,89.786" style="fill:none;fill-rule:nonzero;stroke:black;stroke-width:2.01px;"/>
    </g>
    <g transform="matrix(6.12323e-17,-1,1,6.12323e-17,129.846,165.655)">
        <path d="M80.995,89.786L121.261,89.786" style="fill:none;fill-rule:nonzero;stroke:black;stroke-width:2.01px;"/>
    </g>
    <g transform="matrix(6.12323e-17,-1,1,6.12323e-17,115.951,234.863)">
        <path d="M80.995,89.786L121.261,89.786" style="fill:none;fill-rule:nonzero;stroke:black;stroke-width:2.01px;"/>
    </g>
    <g transform="matrix(0,1,1,0,31.0483,-89.4737)">
        <path d="M113.208,81.733L129.314,81.733" style="fill:none;fill-rule:nonzero;stroke:black;stroke-width:2.01px;"/>
    </g>
    <g transform="matrix(1,6.12323e-17,6.12323e-17,-1,106.425,126.126)">
        <path d="M113.208,81.733L129.314,81.733" style="fill:none;fill-rule:nonzero;stroke:black;stroke-width:2.01px;"/>
    </g>
    <g transform="matrix(1,6.12323e-17,6.12323e-17,-1,92.5293,195.335)">
        <path d="M113.208,81.733L129.314,81.733" style="fill:none;fill-rule:nonzero;stroke:black;stroke-width:2.01px;"/>
    </g>
    <g transform="matrix(1,6.12323e-17,6.12323e-17,-1,92.5293,235.564)">
        <path d="M113.208,81.733L129.314,81.733" style="fill:none;fill-rule:nonzero;stroke:black;stroke-width:2.01px;"/>
    </g>
    <g transform="matrix(-1,0,0,1,193.776,-33.5168)">
        <path d="M80.995,73.518L121.261,73.518" style="fill:none;fill-rule:nonzero;stroke:black;stroke-width:2.01px;"/>
    </g>
    <g transform="matrix(-6.12323e-17,1,1,6.12323e-17,162.381,-36.601)">
        <path d="M80.995,73.518L121.261,73.518" style="fill:none;fill-rule:nonzero;stroke:black;stroke-width:2.01px;"/>
    </g>
    <g transform="matrix(-6.12323e-17,1,1,6.12323e-17,148.486,32.6079)">
        <path d="M80.995,73.518L121.261,73.518" style="fill:none;fill-rule:nonzero;stroke:black;stroke-width:2.01px;"/>
    </g>
    <g transform="matrix(0,-1,-1,0,154.247,112.782)">
        <path d="M72.941,81.733L89.048,81.733" style="fill:none;fill-rule:nonzero;stroke:black;stroke-width:2.01px;"/>
    </g>
    <g transform="matrix(-1,-6.12323e-17,-6.12323e-17,1,308.68,2.92737)">
        <path d="M72.941,81.733L89.048,81.733" style="fill:none;fill-rule:nonzero;stroke:black;stroke-width:2.01px;"/>
    </g>
    <g transform="matrix(3.55729,0,0,1,-268.505,-49.9454)">
        <path d="M121.261,81.733L150.143,81.733" style="fill:none;fill-rule:nonzero;stroke:black;stroke-width:0.46px;"/>
    </g>
    <g transform="matrix(1.03272,0,0,1,72.8933,19.0572)">
        <path d="M121.261,81.733L150.143,81.733" style="fill:none;fill-rule:nonzero;stroke:black;stroke-width:1.19px;"/>
    </g>
    <g transform="matrix(1.42253,0,0,1,-58.794,-49.9454)">
        <path d="M121.261,81.733L150.143,81.733" style="fill:none;fill-rule:nonzero;stroke:black;stroke-width:0.98px;"/>
    </g>
    <g transform="matrix(-1,0,0,1,130.195,-49.9454)">
        <path d="M57.68,81.733L80.995,81.733" style="fill:none;fill-rule:nonzero;stroke:black;stroke-width:1.21px;"/>
    </g>
    <g transform="matrix(1,0,0,1,58.0277,-50.2935)">
        <path d="M139.695,85.933C137.473,85.933 135.669,84.129 135.669,81.907C135.669,79.684 137.473,77.88 139.695,77.88C141.918,77.88 143.722,79.684 143.722,81.907C143.722,84.129 141.918,85.933 139.695,85.933Z" style="stroke:black;stroke-width:0.4px;"/>
    </g>
    <g transform="matrix(1,0,0,1,58.0277,5.8332)">
        <path d="M132.01,53.843L148.116,53.843" style="fill:none;fill-rule:nonzero;stroke:black;stroke-width:2.01px;"/>
    </g>
    <g transform="matrix(6.12323e-17,-1,1,6.12323e-17,100.946,171.811)">
        <path d="M132.01,53.843L148.116,53.843" style="fill:none;fill-rule:nonzero;stroke:black;stroke-width:2.01px;"/>
    </g>
    <g transform="matrix(-1,0,0,1,338.154,21.9656)">
        <path d="M132.01,45.777L148.116,45.777" style="fill:none;fill-rule:nonzero;stroke:black;stroke-width:2.01px;"/>
    </g>
    <g transform="matrix(-6.12323e-17,1,1,6.12323e-17,117.078,-108.315)">
        <path d="M132.01,45.777L148.116,45.777" style="fill:none;fill-rule:nonzero;stroke:black;stroke-width:2.01px;"/>
    </g>
    <g transform="matrix(-1,0,0,1,107.686,47.4662)">
        <path d="M49.098,45.777L65.205,45.777" style="fill:none;fill-rule:nonzero;stroke:black;stroke-width:2.01px;"/>
    </g>
    <g transform="matrix(0,-1,-1,0,266.474,185.2)">
        <path d="M125.524,68.383L154.602,68.383" style="fill:none;fill-rule:nonzero;stroke:black;stroke-width:1.21px;"/>
    </g>
    <g transform="matrix(3.21818e-17,-0.474431,-1,3.21818e-17,296.49,103.946)">
        <path d="M125.524,68.383L154.602,68.383" style="fill:none;fill-rule:nonzero;stroke:black;stroke-width:1.54px;"/>
    </g>
    <g transform="matrix(0,1,1,0,168.839,-55.7947)">
        <path d="M123.538,29.252L156.588,29.252" style="fill:none;fill-rule:nonzero;stroke:black;stroke-width:1.21px;"/>
    </g>
    <g transform="matrix(3.54097e-17,0.421715,1,3.54097e-17,184.496,48.0636)">
        <path d="M123.538,29.252L156.588,29.252" style="fill:none;fill-rule:nonzero;stroke:black;stroke-width:1.57px;"/>
    </g>
    <g transform="matrix(3.14954e-17,0.485642,1,3.14954e-17,198.697,24.7478)">
        <path d="M123.538,29.252L156.588,29.252" style="fill:none;fill-rule:nonzero;stroke:black;stroke-width:1.54px;"/>
    </g>
    <g transform="matrix(3.14954e-17,0.485642,1,3.14954e-17,184.802,93.9567)">
        <path d="M123.538,29.252L156.588,29.252" style="fill:none;fill-rule:nonzero;stroke:black;stroke-width:1.54px;"/>
    </g>
    <g transform="matrix(-1.9644e-16,4.2081,1,-1.9644e-16,19.4197,-138.758)">
        <path d="M40.626,29.252L73.677,29.252" style="fill:none;fill-rule:nonzero;stroke:black;stroke-width:0.39px;"/>
    </g>
    <g transform="matrix(1,0,0,1,-8.48,159.154)">
        <path d="M48.319,12.111L65.918,12.111" style="fill:none;fill-rule:nonzero;stroke:black;stroke-width:1.21px;"/>
    </g>
    <g transform="matrix(0.707107,-0.707107,-0.707107,-0.707107,13.2286,216.441)">
        <path d="M47.959,9.672L53.575,9.672" style="fill:none;fill-rule:nonzero;stroke:black;stroke-width:1.21px;"/>
    </g>
    <g transform="matrix(0.707107,-0.707107,-0.707107,-0.707107,14.7958,220.224)">
        <path d="M53.31,9.672L58.926,9.672" style="fill:none;fill-rule:nonzero;stroke:black;stroke-width:1.21px;"/>
    </g>
    <g transform="matrix(1,0,0,1,218.61,96.4641)">
        <g transform="matrix(20,0,0,20,-1.18896,70.1017)">
            <path d="M0.248,0.157L0.28,0.123C0.197,0.049 0.152,-0.048 0.152,-0.177C0.152,-0.372 0.26,-0.594 0.479,-0.685L0.464,-0.724C0.209,-0.637 0.072,-0.412 0.072,-0.186C0.072,-0.033 0.144,0.079 0.248,0.157Z" style="fill-rule:nonzero;"/>
        </g>
        <g transform="matrix(20,0,0,20,6.03104,70.1017)">
            <path d="M0.243,0.016C0.406,0.016 0.533,-0.186 0.533,-0.401C0.533,-0.552 0.464,-0.643 0.348,-0.643C0.185,-0.643 0.057,-0.442 0.057,-0.226C0.057,-0.076 0.126,0.016 0.243,0.016ZM0.347,-0.594C0.412,-0.594 0.448,-0.546 0.448,-0.427C0.447,-0.282 0.377,-0.033 0.244,-0.033C0.179,-0.033 0.142,-0.081 0.143,-0.201C0.144,-0.345 0.214,-0.594 0.347,-0.594Z" style="fill-rule:nonzero;"/>
        </g>
        <g transform="matrix(20,0,0,20,17.071,70.1017)">
            <path d="M0.143,-0.724L0.111,-0.69C0.194,-0.616 0.239,-0.519 0.239,-0.39C0.239,-0.195 0.131,0.027 -0.088,0.118L-0.073,0.157C0.182,0.07 0.319,-0.155 0.319,-0.381C0.319,-0.534 0.247,-0.646 0.143,-0.724Z" style="fill-rule:nonzero;"/>
        </g>
    </g>
    <g transform="matrix(1,0,0,1,156.794,159.154)">
        <path d="M48.319,12.111L65.918,12.111" style="fill:none;fill-rule:nonzero;stroke:black;stroke-width:1.21px;"/>
    </g>
    <g transform="matrix(0.707107,-0.707107,-0.707107,-0.707107,178.502,216.441)">
        <path d="M47.959,9.672L53.575,9.672" style="fill:none;fill-rule:nonzero;stroke:black;stroke-width:1.21px;"/>
    </g>
    <g transform="matrix(0.707107,-0.707107,-0.707107,-0.707107,180.07,220.224)">
        <path d="M53.31,9.672L58.926,9.672" style="fill:none;fill-rule:nonzero;stroke:black;stroke-width:1.21px;"/>
    </g>
    <g transform="matrix(0.707107,-0.707107,-0.707107,-0.707107,181.637,224.008)">
        <path d="M58.661,9.672L64.277,9.672" style="fill:none;fill-rule:nonzero;stroke:black;stroke-width:1.21px;"/>
    </g>
    <g transform="matrix(0,-0.627514,-0.627514,0,264.909,251.005)">
        <ellipse cx="139.889" cy="81.956" rx="4.027" ry="4.027" style="stroke:black;stroke-width:0.64px;"/>
    </g>
    <g transform="matrix(0.707107,-0.707107,-0.707107,-0.707107,16.363,224.008)">
        <path d="M58.661,9.672L64.277,9.672" style="fill:none;fill-rule:nonzero;stroke:black;stroke-width:1.21px;"/>
    </g>
    <g transform="matrix(0,-1,-1,0,310.523,171.453)">
        <ellipse cx="139.889" cy="81.956" rx="4.027" ry="4.027" style="stroke:black;stroke-width:0.4px;"/>
    </g>
    <g transform="matrix(0,-1,-1,0,212.549,171.453)">
        <ellipse cx="139.889" cy="81.956" rx="4.027" ry="4.027" style="stroke:black;stroke-width:0.4px;"/>
    </g>
    <g transform="matrix(0,-1,-1,0,131.568,171.453)">
        <ellipse cx="139.889" cy="81.956" rx="4.027" ry="4.027" style="stroke:black;stroke-width:0.4px;"/>
    </g>
    <g transform="matrix(0,-1,-1,0,295.894,241.217)">
        <ellipse cx="139.889" cy="81.956" rx="4.027" ry="4.027" style="stroke:black;stroke-width:0.4px;"/>
    </g>
    <g transform="matrix(0,-0.627514,-0.627514,0,99.6352,251.005)">
        <ellipse cx="139.889" cy="81.956" rx="4.027" ry="4.027" style="stroke:black;stroke-width:0.64px;"/>
    </g>
    <g transform="matrix(1,0,0,1,-8.48,-49.7641)">
        <path d="M68.177,83.742L72.621,81.642L68.177,79.542" style="fill:none;fill-rule:nonzero;stroke:black;stroke-width:2.21px;"/>
    </g>
    <g transform="matrix(1,0,0,1,3.24646,-36.3532)">
        <path d="M24.315,78.32L26.623,71.527L28.853,78.347L24.315,78.32Z"/>
    </g>
    <g transform="matrix(0.0115943,-1.9831,-0.999983,-0.00584643,70.518,155.794)">
        <path d="M-5.142,41.353C-5.142,41.353 41.735,41.353 57.956,41.353" style="fill:none;fill-rule:nonzero;stroke:black;stroke-width:0.64px;"/>
    </g>
    <g transform="matrix(1,0,0,1,96.9167,-39.0317)">
        <path d="M172.154,78.32L174.463,71.527L176.692,78.347L172.154,78.32Z"/>
    </g>
    <g transform="matrix(0.0118457,-2.02555,-1.30286,-0.00761927,322.787,455.106)">
        <path d="M142.697,41.353C142.697,41.353 189.575,41.353 205.796,41.353" style="fill:none;fill-rule:nonzero;stroke:black;stroke-width:0.59px;"/>
    </g>
    <g transform="matrix(0,1,1,0,-0.338695,42.6993)">
        <circle cx="57.829" cy="48.766" r="14.792" style="fill:white;stroke:black;stroke-width:2px;"/>
    </g>
</svg>
