<?xml version="1.0" encoding="UTF-8" standalone="no"?>
<!DOCTYPE svg PUBLIC "-//W3C//DTD SVG 1.1//EN" "http://www.w3.org/Graphics/SVG/1.1/DTD/svg11.dtd">
<svg width="100%" height="100%" viewBox="0 0 204 107" version="1.1" xmlns="http://www.w3.org/2000/svg" xmlns:xlink="http://www.w3.org/1999/xlink" xml:space="preserve" xmlns:serif="http://www.serif.com/" style="fill-rule:evenodd;clip-rule:evenodd;stroke-linecap:round;stroke-linejoin:round;stroke-miterlimit:10;">
    <g transform="matrix(-1,0,0,1,59.0807,-61.3666)">
        <path d="M9.232,84.183L49.848,84.183" style="fill:none;fill-rule:nonzero;stroke:black;stroke-width:1.21px;"/>
    </g>
    <g transform="matrix(-1,0,0,1,59.0807,59.6814)">
        <path d="M9.232,23.659L49.848,23.659" style="fill:none;fill-rule:nonzero;stroke:black;stroke-width:1.21px;"/>
    </g>
    <g transform="matrix(0,-1,-1,0,92.2813,31.2838)">
        <ellipse cx="8.283" cy="83.999" rx="4.026" ry="4.027" style="stroke:black;stroke-width:0.4px;"/>
    </g>
    <g transform="matrix(0,-1,-1,0,32.0303,91.5348)">
        <ellipse cx="8.283" cy="23.748" rx="4.027" ry="4.027" style="stroke:black;stroke-width:0.4px;"/>
    </g>
    <g transform="matrix(0,-1,-1,0,185.331,244.836)">
        <circle cx="161.584" cy="23.748" r="4.027" style="stroke:black;stroke-width:0.4px;"/>
    </g>
    <g transform="matrix(1,0,0,1,0,-1.2771)">
        <rect x="44.373" y="11.363" width="79.944" height="85.551" style="fill:white;stroke:black;stroke-width:2px;"/>
    </g>
    <g transform="matrix(1,0,0,1,0,-44.5116)">
        <path d="M53.698,79.901L50.934,71.61L48.17,79.901L53.698,79.901Z" style="fill-rule:nonzero;"/>
    </g>
    <g transform="matrix(0,1,1,0,1.2783,6.4101)">
        <path d="M28.98,49.656L72.889,49.656" style="fill:none;fill-rule:nonzero;stroke:black;stroke-width:1.21px;"/>
    </g>
    <g transform="matrix(1,0,0,1,0,-0.9296)">
        <path d="M103.856,84.11L103.856,23.819L161.686,23.819" style="fill:none;fill-rule:nonzero;stroke:black;stroke-width:1.21px;"/>
    </g>
    <g transform="matrix(1,0,0,1,0,59.3614)">
        <path d="M103.856,23.819L161.686,23.819" style="fill:none;fill-rule:nonzero;stroke:black;stroke-width:1.21px;"/>
    </g>
    <g transform="matrix(0,1,1,0,51.1119,-49.5995)">
        <ellipse cx="103.856" cy="52.744" rx="14.791" ry="14.791" style="fill:white;stroke:black;stroke-width:2px;"/>
    </g>
    <g transform="matrix(0,-1,-1,0,245.616,184.619)">
        <circle cx="161.618" cy="83.999" r="4.026" style="stroke:black;stroke-width:0.4px;"/>
    </g>
    <g>
        <g transform="matrix(20,0,0,20,4.2559,14.9267)">
            <path d="M0.524,0.016L0.592,0.016L0.744,-0.592L0.844,-0.592L0.86,-0.658L0.584,-0.658L0.568,-0.592L0.67,-0.592L0.566,-0.174L0.557,-0.174L0.353,-0.658L0.142,-0.658L0.126,-0.592L0.227,-0.592L0.096,-0.066L-0.003,-0.066L-0.018,0L0.257,0L0.272,-0.066L0.17,-0.066L0.286,-0.532L0.295,-0.532L0.524,0.016Z" style="fill-rule:nonzero;"/>
        </g>
        <g transform="matrix(20,0,0,20,19.6959,14.9267)">
            <path d="M0.332,0.016C0.489,0.016 0.585,-0.1 0.635,-0.239L0.573,-0.263C0.52,-0.141 0.451,-0.054 0.341,-0.054C0.24,-0.054 0.176,-0.124 0.176,-0.256C0.176,-0.377 0.243,-0.608 0.433,-0.608C0.519,-0.608 0.582,-0.565 0.595,-0.413L0.654,-0.413L0.718,-0.671L0.651,-0.671L0.614,-0.595C0.581,-0.644 0.519,-0.674 0.437,-0.674C0.228,-0.674 0.065,-0.477 0.065,-0.261C0.065,-0.105 0.145,0.016 0.332,0.016Z" style="fill-rule:nonzero;"/>
        </g>
        <g transform="matrix(13,0,0,13,33.1759,8.9267)">
            <path d="M0.191,-0.067L0.257,-0.067L0.302,-0.25L0.481,-0.25L0.496,-0.312L0.318,-0.312L0.364,-0.495L0.298,-0.495L0.252,-0.312L0.073,-0.312L0.058,-0.25L0.236,-0.25L0.191,-0.067Z" style="fill-rule:nonzero;"/>
        </g>
        <g transform="matrix(20,0,0,20,4.2559,103.347)">
            <path d="M0.524,0.016L0.592,0.016L0.744,-0.592L0.844,-0.592L0.86,-0.658L0.584,-0.658L0.568,-0.592L0.67,-0.592L0.566,-0.174L0.557,-0.174L0.353,-0.658L0.142,-0.658L0.126,-0.592L0.227,-0.592L0.096,-0.066L-0.003,-0.066L-0.018,0L0.257,0L0.272,-0.066L0.17,-0.066L0.286,-0.532L0.295,-0.532L0.524,0.016Z" style="fill-rule:nonzero;"/>
        </g>
        <g transform="matrix(20,0,0,20,19.6959,103.347)">
            <path d="M0.332,0.016C0.489,0.016 0.585,-0.1 0.635,-0.239L0.573,-0.263C0.52,-0.141 0.451,-0.054 0.341,-0.054C0.24,-0.054 0.176,-0.124 0.176,-0.256C0.176,-0.377 0.243,-0.608 0.433,-0.608C0.519,-0.608 0.582,-0.565 0.595,-0.413L0.654,-0.413L0.718,-0.671L0.651,-0.671L0.614,-0.595C0.581,-0.644 0.519,-0.674 0.437,-0.674C0.228,-0.674 0.065,-0.477 0.065,-0.261C0.065,-0.105 0.145,0.016 0.332,0.016Z" style="fill-rule:nonzero;"/>
        </g>
        <g transform="matrix(13,0,0,13,33.1759,97.3467)">
            <path d="M0.051,-0.211L0.302,-0.211L0.321,-0.288L0.07,-0.288L0.051,-0.211Z" style="fill-rule:nonzero;"/>
        </g>
    </g>
    <g transform="matrix(13,0,0,13,49.3215,25.2807)">
        <path d="M0.23,-0.067L0.296,-0.067L0.296,-0.25L0.474,-0.25L0.474,-0.312L0.296,-0.312L0.296,-0.495L0.23,-0.495L0.23,-0.312L0.051,-0.312L0.051,-0.25L0.23,-0.25L0.23,-0.067Z" style="fill-rule:nonzero;"/>
    </g>
    <g transform="matrix(-13,0,0,13,97.5984,25.2814)">
        <path d="M0.23,-0.067L0.296,-0.067L0.296,-0.25L0.474,-0.25L0.474,-0.312L0.296,-0.312L0.296,-0.495L0.23,-0.495L0.23,-0.312L0.051,-0.312L0.051,-0.25L0.23,-0.25L0.23,-0.067Z" style="fill-rule:nonzero;"/>
    </g>
    <g transform="matrix(13,0,0,13,49.3215,86.3087)">
        <rect x="0.055" y="-0.288" width="0.256" height="0.077" style="fill-rule:nonzero;"/>
    </g>
    <g transform="matrix(-13,0,0,13,97.5984,86.309)">
        <rect x="0.055" y="-0.288" width="0.256" height="0.077" style="fill-rule:nonzero;"/>
    </g>
    <g>
        <g transform="matrix(20,0,0,20,56.1179,61.5207)">
            <path d="M0.157,-0.458C0.098,-0.458 0.061,-0.401 0.019,-0.31L0.053,-0.294C0.087,-0.362 0.107,-0.399 0.134,-0.399C0.151,-0.399 0.154,-0.386 0.154,-0.373C0.154,-0.31 0.073,-0.172 0.073,-0.094C0.073,-0.033 0.117,0.012 0.19,0.012C0.345,0.012 0.447,-0.231 0.447,-0.369C0.447,-0.432 0.425,-0.461 0.388,-0.461C0.354,-0.461 0.331,-0.428 0.331,-0.394C0.331,-0.363 0.35,-0.344 0.379,-0.344C0.385,-0.344 0.394,-0.347 0.4,-0.35C0.397,-0.232 0.321,-0.049 0.215,-0.049C0.182,-0.049 0.151,-0.064 0.151,-0.104C0.151,-0.165 0.229,-0.284 0.229,-0.372C0.23,-0.426 0.202,-0.458 0.157,-0.458Z" style="fill-rule:nonzero;"/>
        </g>
        <g transform="matrix(13,0,0,13,65.4979,64.5207)">
            <path d="M0.03,0L0.621,0L0.621,-0.234L0.573,-0.234C0.536,-0.097 0.525,-0.066 0.437,-0.066L0.244,-0.066L0.244,-0.31L0.313,-0.31C0.387,-0.31 0.398,-0.3 0.415,-0.205L0.468,-0.205L0.468,-0.467L0.415,-0.467C0.396,-0.376 0.387,-0.366 0.313,-0.366L0.244,-0.366L0.244,-0.592L0.441,-0.592C0.518,-0.592 0.528,-0.562 0.564,-0.444L0.612,-0.444L0.612,-0.658L0.03,-0.658L0.03,-0.592L0.141,-0.592L0.141,-0.066L0.03,-0.066L0.03,0Z" style="fill-rule:nonzero;"/>
        </g>
    </g>
    <g>
        <g transform="matrix(20,0,0,20,154.733,14.9267)">
            <path d="M0.524,0.016L0.592,0.016L0.744,-0.592L0.844,-0.592L0.86,-0.658L0.584,-0.658L0.568,-0.592L0.67,-0.592L0.566,-0.174L0.557,-0.174L0.353,-0.658L0.142,-0.658L0.126,-0.592L0.227,-0.592L0.096,-0.066L-0.003,-0.066L-0.018,0L0.257,0L0.272,-0.066L0.17,-0.066L0.286,-0.532L0.295,-0.532L0.524,0.016Z" style="fill-rule:nonzero;"/>
        </g>
        <g transform="matrix(13,0,0,13,170.173,8.9267)">
            <path d="M0.191,-0.067L0.257,-0.067L0.302,-0.25L0.481,-0.25L0.496,-0.312L0.318,-0.312L0.364,-0.495L0.298,-0.495L0.252,-0.312L0.073,-0.312L0.058,-0.25L0.236,-0.25L0.191,-0.067Z" style="fill-rule:nonzero;"/>
        </g>
        <g transform="matrix(20,0,0,20,154.543,103.347)">
            <path d="M0.524,0.016L0.592,0.016L0.744,-0.592L0.844,-0.592L0.86,-0.658L0.584,-0.658L0.568,-0.592L0.67,-0.592L0.566,-0.174L0.557,-0.174L0.353,-0.658L0.142,-0.658L0.126,-0.592L0.227,-0.592L0.096,-0.066L-0.003,-0.066L-0.018,0L0.257,0L0.272,-0.066L0.17,-0.066L0.286,-0.532L0.295,-0.532L0.524,0.016Z" style="fill-rule:nonzero;"/>
        </g>
        <g transform="matrix(13,0,0,13,169.983,97.3467)">
            <path d="M0.051,-0.211L0.302,-0.211L0.321,-0.288L0.07,-0.288L0.051,-0.211Z" style="fill-rule:nonzero;"/>
        </g>
    </g>
    <g>
        <g transform="matrix(20,0,0,20,133.423,61.5207)">
            <path d="M0.157,-0.458C0.098,-0.458 0.061,-0.401 0.019,-0.31L0.053,-0.294C0.087,-0.362 0.107,-0.399 0.134,-0.399C0.151,-0.399 0.154,-0.386 0.154,-0.373C0.154,-0.31 0.073,-0.172 0.073,-0.094C0.073,-0.033 0.117,0.012 0.19,0.012C0.345,0.012 0.447,-0.231 0.447,-0.369C0.447,-0.432 0.425,-0.461 0.388,-0.461C0.354,-0.461 0.331,-0.428 0.331,-0.394C0.331,-0.363 0.35,-0.344 0.379,-0.344C0.385,-0.344 0.394,-0.347 0.4,-0.35C0.397,-0.232 0.321,-0.049 0.215,-0.049C0.182,-0.049 0.151,-0.064 0.151,-0.104C0.151,-0.165 0.229,-0.284 0.229,-0.372C0.23,-0.426 0.202,-0.458 0.157,-0.458Z" style="fill-rule:nonzero;"/>
        </g>
        <g transform="matrix(13,0,0,13,142.803,64.5207)">
            <path d="M0.053,0.013L0.119,0.013L0.143,-0.056C0.183,-0.01 0.252,0.016 0.326,0.016C0.454,0.016 0.548,-0.075 0.548,-0.19C0.548,-0.323 0.441,-0.354 0.34,-0.379C0.248,-0.403 0.16,-0.423 0.16,-0.512C0.16,-0.572 0.2,-0.612 0.264,-0.612C0.339,-0.612 0.397,-0.573 0.458,-0.443L0.518,-0.443L0.518,-0.671L0.452,-0.671L0.431,-0.604C0.394,-0.65 0.325,-0.674 0.269,-0.674C0.144,-0.674 0.062,-0.581 0.062,-0.483C0.062,-0.348 0.172,-0.313 0.275,-0.284C0.365,-0.258 0.45,-0.236 0.45,-0.155C0.45,-0.086 0.403,-0.046 0.325,-0.046C0.232,-0.046 0.186,-0.091 0.113,-0.225L0.053,-0.225L0.053,0.013Z" style="fill-rule:nonzero;"/>
        </g>
        <g transform="matrix(20,0,0,20,150.408,61.5207)">
            <path d="M0.087,-0.344L0.498,-0.344L0.51,-0.393L0.099,-0.393L0.087,-0.344ZM0.042,-0.163L0.453,-0.163L0.465,-0.211L0.054,-0.211L0.042,-0.163Z" style="fill-rule:nonzero;"/>
        </g>
        <g transform="matrix(20,0,0,20,160.928,61.5207)">
            <path d="M0.318,-0.041C0.224,-0.041 0.159,-0.109 0.159,-0.244C0.159,-0.413 0.252,-0.614 0.428,-0.614C0.521,-0.614 0.587,-0.565 0.594,-0.421L0.64,-0.421L0.7,-0.665L0.647,-0.665L0.609,-0.587C0.572,-0.64 0.51,-0.668 0.431,-0.668C0.227,-0.668 0.069,-0.469 0.069,-0.25C0.069,-0.106 0.149,0.016 0.3,0.016C0.375,0.016 0.439,-0.018 0.489,-0.085L0.491,0.007L0.539,0.007L0.609,-0.269L0.699,-0.269L0.712,-0.321L0.416,-0.321L0.402,-0.269L0.525,-0.269L0.518,-0.241C0.489,-0.129 0.42,-0.041 0.318,-0.041Z" style="fill-rule:nonzero;"/>
        </g>
        <g transform="matrix(20,0,0,20,174.868,61.5207)">
            <path d="M0.307,-0.275L0.487,-0.423L0.458,-0.461L0.279,-0.313L0.172,-0.462L0.131,-0.429L0.238,-0.281L0.058,-0.133L0.088,-0.095L0.266,-0.243L0.374,-0.094L0.415,-0.126L0.307,-0.275Z" style="fill-rule:nonzero;"/>
        </g>
        <g transform="matrix(20,0,0,20,185.108,61.5207)">
            <path d="M0.157,-0.458C0.098,-0.458 0.061,-0.401 0.019,-0.31L0.053,-0.294C0.087,-0.362 0.107,-0.399 0.134,-0.399C0.151,-0.399 0.154,-0.386 0.154,-0.373C0.154,-0.31 0.073,-0.172 0.073,-0.094C0.073,-0.033 0.117,0.012 0.19,0.012C0.345,0.012 0.447,-0.231 0.447,-0.369C0.447,-0.432 0.425,-0.461 0.388,-0.461C0.354,-0.461 0.331,-0.428 0.331,-0.394C0.331,-0.363 0.35,-0.344 0.379,-0.344C0.385,-0.344 0.394,-0.347 0.4,-0.35C0.397,-0.232 0.321,-0.049 0.215,-0.049C0.182,-0.049 0.151,-0.064 0.151,-0.104C0.151,-0.165 0.229,-0.284 0.229,-0.372C0.23,-0.426 0.202,-0.458 0.157,-0.458Z" style="fill-rule:nonzero;"/>
        </g>
        <g transform="matrix(13,0,0,13,194.488,64.5207)">
            <path d="M0.03,0L0.621,0L0.621,-0.234L0.573,-0.234C0.536,-0.097 0.525,-0.066 0.437,-0.066L0.244,-0.066L0.244,-0.31L0.313,-0.31C0.387,-0.31 0.398,-0.3 0.415,-0.205L0.468,-0.205L0.468,-0.467L0.415,-0.467C0.396,-0.376 0.387,-0.366 0.313,-0.366L0.244,-0.366L0.244,-0.592L0.441,-0.592C0.518,-0.592 0.528,-0.562 0.564,-0.444L0.612,-0.444L0.612,-0.658L0.03,-0.658L0.03,-0.592L0.141,-0.592L0.141,-0.066L0.03,-0.066L0.03,0Z" style="fill-rule:nonzero;"/>
        </g>
    </g>
    <g transform="matrix(20,0,0,20,132.777,16.4714)">
        <path d="M0.279,-0.597C0.279,-0.624 0.262,-0.64 0.239,-0.64C0.206,-0.64 0.188,-0.608 0.188,-0.581C0.188,-0.553 0.207,-0.539 0.227,-0.539C0.26,-0.539 0.279,-0.572 0.279,-0.597ZM0.227,-0.364C0.227,-0.419 0.201,-0.452 0.158,-0.452C0.103,-0.452 0.065,-0.392 0.023,-0.305L0.049,-0.293C0.082,-0.356 0.114,-0.41 0.145,-0.41C0.164,-0.41 0.167,-0.389 0.167,-0.379C0.167,-0.29 0.078,-0.159 0.077,-0.074C0.076,-0.021 0.104,0.009 0.147,0.009C0.187,0.009 0.226,-0.023 0.271,-0.148L0.244,-0.157C0.217,-0.083 0.192,-0.039 0.163,-0.039C0.144,-0.039 0.139,-0.056 0.139,-0.067C0.139,-0.134 0.227,-0.275 0.227,-0.364Z" style="fill-rule:nonzero;"/>
    </g>
    <g transform="matrix(1,0,0,1,0,-44.5116)">
        <path d="M134.802,79.901L132.038,71.61L129.274,79.901L134.802,79.901Z" style="fill-rule:nonzero;"/>
    </g>
    <g transform="matrix(0,1,1,0,82.3822,-74.6938)">
        <path d="M110.084,49.656L153.993,49.656" style="fill:none;fill-rule:nonzero;stroke:black;stroke-width:1.21px;"/>
    </g>
    <g transform="matrix(1,0,0,1,0,-61.2768)">
        <path d="M137.288,82.038L132.845,84.138L137.288,86.239" style="fill:none;fill-rule:nonzero;stroke:black;stroke-width:2.21px;"/>
    </g>
</svg>
